%YAML 1.1
%TAG !u! tag:unity3d.com,2011:
--- !u!114 &11400000
MonoBehaviour:
  m_ObjectHideFlags: 0
  m_CorrespondingSourceObject: {fileID: 0}
  m_PrefabInstance: {fileID: 0}
  m_PrefabAsset: {fileID: 0}
  m_GameObject: {fileID: 0}
  m_Enabled: 1
  m_EditorHideFlags: 0
  m_Script: {fileID: 11500000, guid: 9b98679f68010aa47b87fd69b9883811, type: 3}
  m_Name: AshleighFish
  m_EditorClassIdentifier: 
  m_Image: {fileID: 2800000, guid: 32051bc7b137c484a8a701c38b9ae8e7, type: 3}
  m_Creator: Ashleigh
  m_FishName: 
